Lab 6
…
# A tibble: 6 × 3
  description                                    medical_specialty transcription
  <chr>                                          <chr>             <chr>        
1 A 23-year-old white female presents with comp… Allergy / Immuno… "SUBJECTIVE:…
2 Consult for laparoscopic gastric bypass.       Bariatrics        "PAST MEDICA…
3 Consult for laparoscopic gastric bypass.       Bariatrics        "HISTORY OF …
4 2-D M-Mode. Doppler.                           Cardiovascular /… "2-D M-MODE:…
5 2-D Echocardiogram                             Cardiovascular /… "1.  The lef…
6 Morbid obesity.  Laparoscopic antecolic anteg… Bariatrics        "PREOPERATIV…

print(mt_samples)

# A tibble: 4,999 × 3
   description                                   medical_specialty transcription
   <chr>                                         <chr>             <chr>        
 1 "A 23-year-old white female presents with co… Allergy / Immuno… "SUBJECTIVE:…
 2 "Consult for laparoscopic gastric bypass."    Bariatrics        "PAST MEDICA…
 3 "Consult for laparoscopic gastric bypass."    Bariatrics        "HISTORY OF …
 4 "2-D M-Mode. Doppler."                        Cardiovascular /… "2-D M-MODE:…
 5 "2-D Echocardiogram"                          Cardiovascular /… "1.  The lef…
 6 "Morbid obesity.  Laparoscopic antecolic ant… Bariatrics        "PREOPERATIV…
 7 "Liposuction of the supraumbilical abdomen, … Bariatrics        "PREOPERATIV…
 8 "2-D Echocardiogram"                          Cardiovascular /… "2-D ECHOCAR…
 9 "Suction-assisted lipectomy - lipodystrophy … Bariatrics        "PREOPERATIV…
10 "Echocardiogram and Doppler"                  Cardiovascular /… "DESCRIPTION…
# ℹ 4,989 more rows

#Question 1

mt_samples %>%
  count(medical_specialty, sort = TRUE)

# A tibble: 40 × 2
   medical_specialty                 n
   <chr>                         <int>
 1 Surgery                        1103
 2 Consult - History and Phy.      516
 3 Cardiovascular / Pulmonary      372
 4 Orthopedic                      355
 5 Radiology                       273
 6 General Medicine                259
 7 Gastroenterology                230
 8 Neurology                       223
 9 SOAP / Chart / Progress Notes   166
10 Obstetrics / Gynecology         160
# ℹ 30 more rows
…
library(dplyr)
library(tidytext)
data("stop_words")
top_words_by_medical_specialty <- mt_samples %>%
  unnest_tokens(word, transcription) %>%                   
  anti_join(stop_words, by = "word") %>%                   
  filter(!str_detect(word, "^[0-9]+$")) %>%             
  group_by(medical_specialty) %>%             
  count(word, sort = TRUE) %>%                    
  top_n(5, n) %>%                   
  ungroup()                                       
top_words_by_medical_specialty

# A tibble: 210 × 3
   medical_specialty          word           n
   <chr>                      <chr>      <int>
 1 Surgery                    patient     4855
 2 Surgery                    left        3263
 3 Surgery                    procedure   3243
 4 Consult - History and Phy. patient     3046
 5 Consult - History and Phy. history     2820
 6 Orthopedic                 patient     1711
 7 Surgery                    anesthesia  1687
 8 Surgery                    incision    1641
 9 Cardiovascular / Pulmonary left        1550
10 Cardiovascular / Pulmonary patient     1516
# ℹ 200 more rows
…
